{
  "products": [
    {
      "Pid": 1,
      "name": "Lawn Mower",
      "price": "$ 5/hr",
      "img": "/image/shop.jpg",
      "rent": "63 times",
      "loc": "Est. 6.3 KMs"
    },
    {
      "Pid": 2,
      "name": "Driller Chordless",
      "price": "$ 5/hr",
      "img": "/image/driller.jpg",
      "rent": "123 times",
      "loc": "Est. 6.1 KMs"
    },
    {
      "Pid": 3,
      "name": "Lawn Tractor",
      "price": "$ 15/hr",
      "img": "/image/tractor.jpg",
      "rent": "12 times",
      "loc": "Est. 9.1 KMs"
    },
    {
      "Pid": 4,
      "name": "Rake",
      "price": "$ 1/hr",
      "img": "/image/rake.png",
      "rent": "2 times",
      "loc": "Est. 1.1 KMs"
    }
  ]
}
